<svg width="512" height="512" viewBox="0 0 512 512" fill="none" xmlns="http://www.w3.org/2000/svg">
<g clip-path="url(#clip0_27_43)">
<path d="M109.4 224.3L124.3 224.3C199.7 224.3 402.8 224.2 478.2 224.3C503.4 224.3 518.5 246 509.4 268.6C504.4 281 493.7 287.6 477.8 287.6C402.7 287.7 200.1 287.6 125 287.6L109.6 287.6C113.5 292 115.8 294.8 118.4 297.3C139.4 318.1 160.4 338.7 181.4 359.6C190.6 368.8 194.3 379.8 190.7 392.7C187.4 404.9 179.3 412.2 167.2 414.9C155.6 417.5 145.1 414.3 136.8 406C94.4 363.8 52.2 321.6 10.1 279.2C-3.50004 265.4 -3.30005 246.2 10.3999 232.3C52.1999 190.1 94.1999 148.1 136.4 106.3C150.2 92.7 171.1 92.8001 183.4 105.6C195.7 118.4 194.9 138.5 181 152.5C160.4 173.2 139.5 193.5 118.8 214C116.1 216.8 113.7 219.6 109.4 224.3Z" fill="black"/>
</g>
<defs>
<clipPath id="clip0_27_43">
<rect width="512" height="512" fill="white" transform="translate(512 512) rotate(180)"/>
</clipPath>
</defs>
</svg>
