<svg width="390" height="512" viewBox="0 0 390 512" fill="none" xmlns="http://www.w3.org/2000/svg">
<g clip-path="url(#clip0_23_9)">
<path d="M375 61H339.852C290.512 61 241.582 40.367 205.605 4.395C199.75 -1.465 190.25 -1.465 184.395 4.395C148.418 40.367 99.488 61 50.148 61H15C6.715 61 0 67.715 0 76V256C0 316.043 18.828 366.762 57.555 411.055C90.008 448.172 130.922 474.015 163.797 494.781C171.957 499.934 179.664 504.801 186.68 509.481C189.2 511.161 192.102 512 195 512C197.898 512 200.8 511.16 203.32 509.48C210.113 504.953 217.68 500.184 225.688 495.137C291.12 453.895 390 391.57 390 256V76C390 67.715 383.285 61 375 61ZM360 256C360 375.02 273.125 429.773 209.691 469.754C204.609 472.961 199.699 476.051 195.004 479.074C190.141 475.938 185.07 472.734 179.816 469.418C116.59 429.477 30 374.781 30 256V91H50.148C102.656 91 154.676 70.945 195 35.543C235.324 70.945 287.344 91 339.852 91H360V256Z" fill="#42BA88"/>
<path d="M195 121C120.562 121 60 181.559 60 256C60 330.438 120.563 391 195 391C269.437 391 330 330.437 330 256C330 181.559 269.441 121 195 121ZM195 361C137.102 361 90 313.898 90 256C90 198.102 137.102 151 195 151C252.898 151 300 198.102 300 256C300 313.898 252.898 361 195 361Z" fill="#42BA88"/>
<path d="M244.395 215.395L180 279.785L145.605 245.395C139.75 239.535 130.25 239.535 124.395 245.395C118.535 251.25 118.535 260.75 124.395 266.605L169.395 311.605C172.32 314.535 176.16 316 180 316C183.84 316 187.68 314.535 190.605 311.605L265.605 236.605C271.465 230.746 271.465 221.25 265.605 215.391C259.75 209.535 250.25 209.535 244.395 215.395Z" fill="#42BA88"/>
</g>
<defs>
<clipPath id="clip0_23_9">
<rect width="390" height="512" fill="white"/>
</clipPath>
</defs>
</svg>
